{
  "permissions": {
    "/tickets": [
      "ROLE_USER",
      "ROLE_ADMIN"
    ],
    "/purchases": [
      "ROLE_USER",
      "ROLE_ADMIN"
    ]
  },
  "users": [
    {
      "id": 1,
      "username": "admin",
      "password": "admin",
      "roles": [
        "ROLE_ADMIN"
      ]
    },
    {
      "id": 2,
      "username": "user",
      "password": "user",
      "roles": [
        "ROLE_USER"
      ]
    }
  ],
  "tickets": [
    {
      "id": 1,
      "from": "Novi Sad",
      "to": "Beograd",
      "return": true,
      "price": 1500
    },
    {
      "id": 2,
      "from": "Novi Sad",
      "to": "Beograd",
      "return": false,
      "price": 1000
    }
  ],
  "purchases": [
    {
      "id": 1,
      "userId": 1,
      "ticketId": 2,
      "purchaseDate": "2021-04-30",
      "used": false
    },
    {
      "id": 2,
      "userId": 2,
      "ticketId": 2,
      "purchaseDate": "2021-02-21",
      "used": true
    }
  ]
}